............
----------------------------------------------------------------------
Ran 12 tests in 0.002s

OK
Name               Stmts   Miss Branch BrPart  Cover   Missing
--------------------------------------------------------------
Diplomacy.py          51      0     30      0   100%
TestDiplomacy.py      67      0      0      0   100%
--------------------------------------------------------------
TOTAL                118      0     30      0   100%
